…
{% highlight r %}
#install.packages('tidyr')
library(tidyr)
# gather takes a wide dataset can converts it to a long dataset. In this case
# I don't want PlateRow to be converted, just all other columns.
ds2 <- gather(ds, PlateColumn, Wavelength, -PlateRow)
ds2
{% endhighlight %}



{% highlight text %}
#> # A tibble: 96 x 3
#>    PlateRow PlateColumn Wavelength
#>       <int>       <chr>      <dbl>
#> 1         1           1     0.0602
#> 2         2           1     0.0598
#> 3         3           1     0.0913
#> 4         4           1     0.0979
#> 5         5           1     0.1408
#> 6         6           1     0.3730
#> 7         7           1     1.1380
#> 8         8           1     3.1249
#> 9         1           2     0.0614
#> 10        2           2     0.0649
#> # ... with 86 more rows
…
